(['/home/raul/Proyectos/testing-pygame/core/pong.py'],
 ['/home/raul/Proyectos/testing-pygame/core'],
 ['codecs'],
 ['/home/raul/.local/lib/python3.8/site-packages/_pyinstaller_hooks_contrib/hooks/stdhooks',
  '/home/raul/.local/lib/python3.8/site-packages/_pyinstaller_hooks_contrib/hooks/stdhooks/__pycache__',
  '/home/raul/.local/lib/python3.8/site-packages/_pyinstaller_hooks_contrib/hooks/rthooks',
  '/home/raul/.local/lib/python3.8/site-packages/_pyinstaller_hooks_contrib/hooks/rthooks/__pycache__',
  '/home/raul/.local/lib/python3.8/site-packages/_pyinstaller_hooks_contrib/hooks',
  '/home/raul/.local/lib/python3.8/site-packages/pygame/__pyinstaller'],
 {},
 [],
 [],
 False,
 False,
 False,
 '3.8.10 (default, Mar 15 2022, 12:22:08) \n[GCC 9.4.0]',
 [('pyi_rth_subprocess',
   '/home/raul/.local/lib/python3.8/site-packages/PyInstaller/hooks/rthooks/pyi_rth_subprocess.py',
   'PYSOURCE'),
  ('pyi_rth_pkgutil',
   '/home/raul/.local/lib/python3.8/site-packages/PyInstaller/hooks/rthooks/pyi_rth_pkgutil.py',
   'PYSOURCE'),
  ('pyi_rth_multiprocessing',
   '/home/raul/.local/lib/python3.8/site-packages/PyInstaller/hooks/rthooks/pyi_rth_multiprocessing.py',
   'PYSOURCE'),
  ('pyi_rth_inspect',
   '/home/raul/.local/lib/python3.8/site-packages/PyInstaller/hooks/rthooks/pyi_rth_inspect.py',
   'PYSOURCE'),
  ('pyi_rth_pkgres',
   '/home/raul/.local/lib/python3.8/site-packages/PyInstaller/hooks/rthooks/pyi_rth_pkgres.py',
   'PYSOURCE'),
  ('pong', '/home/raul/Proyectos/testing-pygame/core/pong.py', 'PYSOURCE')],
 [('pkg_resources',
   '/usr/lib/python3/dist-packages/pkg_resources/__init__.py',
   'PYMODULE'),
  ('pkg_resources.py2_warn',
   '/usr/lib/python3/dist-packages/pkg_resources/py2_warn.py',
   'PYMODULE'),
  ('pkg_resources._vendor.packaging.version',
   '/usr/lib/python3/dist-packages/pkg_resources/_vendor/packaging/version.py',
   'PYMODULE'),
  ('pkg_resources._vendor.packaging.utils',
   '/usr/lib/python3/dist-packages/pkg_resources/_vendor/packaging/utils.py',
   'PYMODULE'),
  ('pkg_resources._vendor.packaging.specifiers',
   '/usr/lib/python3/dist-packages/pkg_resources/_vendor/packaging/specifiers.py',
   'PYMODULE'),
  ('pkg_resources._vendor.packaging.requirements',
   '/usr/lib/python3/dist-packages/pkg_resources/_vendor/packaging/requirements.py',
   'PYMODULE'),
  ('string', '/usr/lib/python3.8/string.py', 'PYMODULE'),
  ('pkg_resources._vendor.packaging.markers',
   '/usr/lib/python3/dist-packages/pkg_resources/_vendor/packaging/markers.py',
   'PYMODULE'),
  ('pkg_resources._vendor.packaging._structures',
   '/usr/lib/python3/dist-packages/pkg_resources/_vendor/packaging/_structures.py',
   'PYMODULE'),
  ('pkg_resources._vendor.packaging._compat',
   '/usr/lib/python3/dist-packages/pkg_resources/_vendor/packaging/_compat.py',
   'PYMODULE'),
  ('pkg_resources._vendor.packaging.__about__',
   '/usr/lib/python3/dist-packages/pkg_resources/_vendor/packaging/__about__.py',
   'PYMODULE'),
  ('pkg_resources._vendor.six',
   '/usr/lib/python3/dist-packages/pkg_resources/_vendor/six.py',
   'PYMODULE'),
  ('struct', '/usr/lib/python3.8/struct.py', 'PYMODULE'),
  ('pkg_resources._vendor.pyparsing',
   '/usr/lib/python3/dist-packages/pkg_resources/_vendor/pyparsing.py',
   'PYMODULE'),
  ('uuid', '/usr/lib/python3.8/uuid.py', 'PYMODULE'),
  ('hashlib', '/usr/lib/python3.8/hashlib.py', 'PYMODULE'),
  ('logging', '/usr/lib/python3.8/logging/__init__.py', 'PYMODULE'),
  ('pickle', '/usr/lib/python3.8/pickle.py', 'PYMODULE'),
  ('doctest', '/usr/lib/python3.8/doctest.py', 'PYMODULE'),
  ('argparse', '/usr/lib/python3.8/argparse.py', 'PYMODULE'),
  ('gettext', '/usr/lib/python3.8/gettext.py', 'PYMODULE'),
  ('unittest', '/usr/lib/python3.8/unittest/__init__.py', 'PYMODULE'),
  ('unittest.signals', '/usr/lib/python3.8/unittest/signals.py', 'PYMODULE'),
  ('signal', '/usr/lib/python3.8/signal.py', 'PYMODULE'),
  ('unittest.main', '/usr/lib/python3.8/unittest/main.py', 'PYMODULE'),
  ('unittest.runner', '/usr/lib/python3.8/unittest/runner.py', 'PYMODULE'),
  ('unittest.loader', '/usr/lib/python3.8/unittest/loader.py', 'PYMODULE'),
  ('fnmatch', '/usr/lib/python3.8/fnmatch.py', 'PYMODULE'),
  ('unittest.suite', '/usr/lib/python3.8/unittest/suite.py', 'PYMODULE'),
  ('unittest.case', '/usr/lib/python3.8/unittest/case.py', 'PYMODULE'),
  ('contextlib', '/usr/lib/python3.8/contextlib.py', 'PYMODULE'),
  ('unittest.async_case',
   '/usr/lib/python3.8/unittest/async_case.py',
   'PYMODULE'),
  ('asyncio', '/usr/lib/python3.8/asyncio/__init__.py', 'PYMODULE'),
  ('asyncio.unix_events',
   '/usr/lib/python3.8/asyncio/unix_events.py',
   'PYMODULE'),
  ('asyncio.log', '/usr/lib/python3.8/asyncio/log.py', 'PYMODULE'),
  ('selectors', '/usr/lib/python3.8/selectors.py', 'PYMODULE'),
  ('asyncio.windows_events',
   '/usr/lib/python3.8/asyncio/windows_events.py',
   'PYMODULE'),
  ('asyncio.windows_utils',
   '/usr/lib/python3.8/asyncio/windows_utils.py',
   'PYMODULE'),
  ('asyncio.selector_events',
   '/usr/lib/python3.8/asyncio/selector_events.py',
   'PYMODULE'),
  ('ssl', '/usr/lib/python3.8/ssl.py', 'PYMODULE'),
  ('calendar', '/usr/lib/python3.8/calendar.py', 'PYMODULE'),
  ('base64', '/usr/lib/python3.8/base64.py', 'PYMODULE'),
  ('getopt', '/usr/lib/python3.8/getopt.py', 'PYMODULE'),
  ('asyncio.proactor_events',
   '/usr/lib/python3.8/asyncio/proactor_events.py',
   'PYMODULE'),
  ('asyncio.base_subprocess',
   '/usr/lib/python3.8/asyncio/base_subprocess.py',
   'PYMODULE'),
  ('asyncio.subprocess',
   '/usr/lib/python3.8/asyncio/subprocess.py',
   'PYMODULE'),
  ('asyncio.streams', '/usr/lib/python3.8/asyncio/streams.py', 'PYMODULE'),
  ('asyncio.queues', '/usr/lib/python3.8/asyncio/queues.py', 'PYMODULE'),
  ('asyncio.runners', '/usr/lib/python3.8/asyncio/runners.py', 'PYMODULE'),
  ('asyncio.events', '/usr/lib/python3.8/asyncio/events.py', 'PYMODULE'),
  ('contextvars', '/usr/lib/python3.8/contextvars.py', 'PYMODULE'),
  ('asyncio.trsock', '/usr/lib/python3.8/asyncio/trsock.py', 'PYMODULE'),
  ('asyncio.staggered', '/usr/lib/python3.8/asyncio/staggered.py', 'PYMODULE'),
  ('typing', '/usr/lib/python3.8/typing.py', 'PYMODULE'),
  ('asyncio.tasks', '/usr/lib/python3.8/asyncio/tasks.py', 'PYMODULE'),
  ('concurrent.futures',
   '/usr/lib/python3.8/concurrent/futures/__init__.py',
   'PYMODULE'),
  ('concurrent.futures.thread',
   '/usr/lib/python3.8/concurrent/futures/thread.py',
   'PYMODULE'),
  ('queue', '/usr/lib/python3.8/queue.py', 'PYMODULE'),
  ('concurrent.futures.process',
   '/usr/lib/python3.8/concurrent/futures/process.py',
   'PYMODULE'),
  ('multiprocessing.queues',
   '/usr/lib/python3.8/multiprocessing/queues.py',
   'PYMODULE'),
  ('multiprocessing.synchronize',
   '/usr/lib/python3.8/multiprocessing/synchronize.py',
   'PYMODULE'),
  ('multiprocessing.heap',
   '/usr/lib/python3.8/multiprocessing/heap.py',
   'PYMODULE'),
  ('bisect', '/usr/lib/python3.8/bisect.py', 'PYMODULE'),
  ('multiprocessing.resource_tracker',
   '/usr/lib/python3.8/multiprocessing/resource_tracker.py',
   'PYMODULE'),
  ('multiprocessing.spawn',
   '/usr/lib/python3.8/multiprocessing/spawn.py',
   'PYMODULE'),
  ('runpy', '/usr/lib/python3.8/runpy.py', 'PYMODULE'),
  ('importlib.util', '/usr/lib/python3.8/importlib/util.py', 'PYMODULE'),
  ('importlib._bootstrap_external',
   '/usr/lib/python3.8/importlib/_bootstrap_external.py',
   'PYMODULE'),
  ('importlib.metadata',
   '/usr/lib/python3.8/importlib/metadata.py',
   'PYMODULE'),
  ('configparser', '/usr/lib/python3.8/configparser.py', 'PYMODULE'),
  ('email', '/usr/lib/python3.8/email/__init__.py', 'PYMODULE'),
  ('email._header_value_parser',
   '/usr/lib/python3.8/email/_header_value_parser.py',
   'PYMODULE'),
  ('email.utils', '/usr/lib/python3.8/email/utils.py', 'PYMODULE'),
  ('email._parseaddr', '/usr/lib/python3.8/email/_parseaddr.py', 'PYMODULE'),
  ('urllib.parse', '/usr/lib/python3.8/urllib/parse.py', 'PYMODULE'),
  ('email._encoded_words',
   '/usr/lib/python3.8/email/_encoded_words.py',
   'PYMODULE'),
  ('urllib', '/usr/lib/python3.8/urllib/__init__.py', 'PYMODULE'),
  ('email.header', '/usr/lib/python3.8/email/header.py', 'PYMODULE'),
  ('email.base64mime', '/usr/lib/python3.8/email/base64mime.py', 'PYMODULE'),
  ('email.quoprimime', '/usr/lib/python3.8/email/quoprimime.py', 'PYMODULE'),
  ('email.charset', '/usr/lib/python3.8/email/charset.py', 'PYMODULE'),
  ('email.encoders', '/usr/lib/python3.8/email/encoders.py', 'PYMODULE'),
  ('quopri', '/usr/lib/python3.8/quopri.py', 'PYMODULE'),
  ('email.errors', '/usr/lib/python3.8/email/errors.py', 'PYMODULE'),
  ('csv', '/usr/lib/python3.8/csv.py', 'PYMODULE'),
  ('importlib._bootstrap',
   '/usr/lib/python3.8/importlib/_bootstrap.py',
   'PYMODULE'),
  ('importlib.abc', '/usr/lib/python3.8/importlib/abc.py', 'PYMODULE'),
  ('importlib', '/usr/lib/python3.8/importlib/__init__.py', 'PYMODULE'),
  ('multiprocessing.process',
   '/usr/lib/python3.8/multiprocessing/process.py',
   'PYMODULE'),
  ('multiprocessing.util',
   '/usr/lib/python3.8/multiprocessing/util.py',
   'PYMODULE'),
  ('multiprocessing.forkserver',
   '/usr/lib/python3.8/multiprocessing/forkserver.py',
   'PYMODULE'),
  ('multiprocessing.context',
   '/usr/lib/python3.8/multiprocessing/context.py',
   'PYMODULE'),
  ('multiprocessing.popen_spawn_win32',
   '/usr/lib/python3.8/multiprocessing/popen_spawn_win32.py',
   'PYMODULE'),
  ('multiprocessing.popen_forkserver',
   '/usr/lib/python3.8/multiprocessing/popen_forkserver.py',
   'PYMODULE'),
  ('multiprocessing.popen_spawn_posix',
   '/usr/lib/python3.8/multiprocessing/popen_spawn_posix.py',
   'PYMODULE'),
  ('multiprocessing.popen_fork',
   '/usr/lib/python3.8/multiprocessing/popen_fork.py',
   'PYMODULE'),
  ('multiprocessing.sharedctypes',
   '/usr/lib/python3.8/multiprocessing/sharedctypes.py',
   'PYMODULE'),
  ('multiprocessing.pool',
   '/usr/lib/python3.8/multiprocessing/pool.py',
   'PYMODULE'),
  ('multiprocessing.dummy',
   '/usr/lib/python3.8/multiprocessing/dummy/__init__.py',
   'PYMODULE'),
  ('multiprocessing.dummy.connection',
   '/usr/lib/python3.8/multiprocessing/dummy/connection.py',
   'PYMODULE'),
  ('multiprocessing.managers',
   '/usr/lib/python3.8/multiprocessing/managers.py',
   'PYMODULE'),
  ('multiprocessing.shared_memory',
   '/usr/lib/python3.8/multiprocessing/shared_memory.py',
   'PYMODULE'),
  ('secrets', '/usr/lib/python3.8/secrets.py', 'PYMODULE'),
  ('hmac', '/usr/lib/python3.8/hmac.py', 'PYMODULE'),
  ('multiprocessing.reduction',
   '/usr/lib/python3.8/multiprocessing/reduction.py',
   'PYMODULE'),
  ('multiprocessing.resource_sharer',
   '/usr/lib/python3.8/multiprocessing/resource_sharer.py',
   'PYMODULE'),
  ('multiprocessing.connection',
   '/usr/lib/python3.8/multiprocessing/connection.py',
   'PYMODULE'),
  ('xmlrpc.client', '/usr/lib/python3.8/xmlrpc/client.py', 'PYMODULE'),
  ('xmlrpc', '/usr/lib/python3.8/xmlrpc/__init__.py', 'PYMODULE'),
  ('gzip', '/usr/lib/python3.8/gzip.py', 'PYMODULE'),
  ('_compression', '/usr/lib/python3.8/_compression.py', 'PYMODULE'),
  ('xml.parsers.expat', '/usr/lib/python3.8/xml/parsers/expat.py', 'PYMODULE'),
  ('xml.parsers', '/usr/lib/python3.8/xml/parsers/__init__.py', 'PYMODULE'),
  ('xml', '/usr/lib/python3.8/xml/__init__.py', 'PYMODULE'),
  ('xml.sax.expatreader',
   '/usr/lib/python3.8/xml/sax/expatreader.py',
   'PYMODULE'),
  ('xml.sax.saxutils', '/usr/lib/python3.8/xml/sax/saxutils.py', 'PYMODULE'),
  ('urllib.request', '/usr/lib/python3.8/urllib/request.py', 'PYMODULE'),
  ('getpass', '/usr/lib/python3.8/getpass.py', 'PYMODULE'),
  ('nturl2path', '/usr/lib/python3.8/nturl2path.py', 'PYMODULE'),
  ('ftplib', '/usr/lib/python3.8/ftplib.py', 'PYMODULE'),
  ('netrc', '/usr/lib/python3.8/netrc.py', 'PYMODULE'),
  ('shlex', '/usr/lib/python3.8/shlex.py', 'PYMODULE'),
  ('mimetypes', '/usr/lib/python3.8/mimetypes.py', 'PYMODULE'),
  ('http.cookiejar', '/usr/lib/python3.8/http/cookiejar.py', 'PYMODULE'),
  ('http', '/usr/lib/python3.8/http/__init__.py', 'PYMODULE'),
  ('urllib.response', '/usr/lib/python3.8/urllib/response.py', 'PYMODULE'),
  ('urllib.error', '/usr/lib/python3.8/urllib/error.py', 'PYMODULE'),
  ('xml.sax', '/usr/lib/python3.8/xml/sax/__init__.py', 'PYMODULE'),
  ('xml.sax.handler', '/usr/lib/python3.8/xml/sax/handler.py', 'PYMODULE'),
  ('xml.sax._exceptions',
   '/usr/lib/python3.8/xml/sax/_exceptions.py',
   'PYMODULE'),
  ('xml.sax.xmlreader', '/usr/lib/python3.8/xml/sax/xmlreader.py', 'PYMODULE'),
  ('http.client', '/usr/lib/python3.8/http/client.py', 'PYMODULE'),
  ('email.message', '/usr/lib/python3.8/email/message.py', 'PYMODULE'),
  ('email.policy', '/usr/lib/python3.8/email/policy.py', 'PYMODULE'),
  ('email.contentmanager',
   '/usr/lib/python3.8/email/contentmanager.py',
   'PYMODULE'),
  ('email.headerregistry',
   '/usr/lib/python3.8/email/headerregistry.py',
   'PYMODULE'),
  ('email.iterators', '/usr/lib/python3.8/email/iterators.py', 'PYMODULE'),
  ('email.generator', '/usr/lib/python3.8/email/generator.py', 'PYMODULE'),
  ('email._policybase', '/usr/lib/python3.8/email/_policybase.py', 'PYMODULE'),
  ('uu', '/usr/lib/python3.8/uu.py', 'PYMODULE'),
  ('optparse', '/usr/lib/python3.8/optparse.py', 'PYMODULE'),
  ('decimal', '/usr/lib/python3.8/decimal.py', 'PYMODULE'),
  ('_pydecimal', '/usr/lib/python3.8/_pydecimal.py', 'PYMODULE'),
  ('numbers', '/usr/lib/python3.8/numbers.py', 'PYMODULE'),
  ('multiprocessing',
   '/usr/lib/python3.8/multiprocessing/__init__.py',
   'PYMODULE'),
  ('concurrent.futures._base',
   '/usr/lib/python3.8/concurrent/futures/_base.py',
   'PYMODULE'),
  ('concurrent', '/usr/lib/python3.8/concurrent/__init__.py', 'PYMODULE'),
  ('asyncio.base_tasks',
   '/usr/lib/python3.8/asyncio/base_tasks.py',
   'PYMODULE'),
  ('asyncio.locks', '/usr/lib/python3.8/asyncio/locks.py', 'PYMODULE'),
  ('asyncio.sslproto', '/usr/lib/python3.8/asyncio/sslproto.py', 'PYMODULE'),
  ('asyncio.transports',
   '/usr/lib/python3.8/asyncio/transports.py',
   'PYMODULE'),
  ('asyncio.base_events',
   '/usr/lib/python3.8/asyncio/base_events.py',
   'PYMODULE'),
  ('asyncio.protocols', '/usr/lib/python3.8/asyncio/protocols.py', 'PYMODULE'),
  ('asyncio.futures', '/usr/lib/python3.8/asyncio/futures.py', 'PYMODULE'),
  ('asyncio.coroutines',
   '/usr/lib/python3.8/asyncio/coroutines.py',
   'PYMODULE'),
  ('asyncio.base_futures',
   '/usr/lib/python3.8/asyncio/base_futures.py',
   'PYMODULE'),
  ('asyncio.exceptions',
   '/usr/lib/python3.8/asyncio/exceptions.py',
   'PYMODULE'),
  ('asyncio.format_helpers',
   '/usr/lib/python3.8/asyncio/format_helpers.py',
   'PYMODULE'),
  ('asyncio.constants', '/usr/lib/python3.8/asyncio/constants.py', 'PYMODULE'),
  ('unittest.result', '/usr/lib/python3.8/unittest/result.py', 'PYMODULE'),
  ('unittest.util', '/usr/lib/python3.8/unittest/util.py', 'PYMODULE'),
  ('difflib', '/usr/lib/python3.8/difflib.py', 'PYMODULE'),
  ('_compat_pickle', '/usr/lib/python3.8/_compat_pickle.py', 'PYMODULE'),
  ('random', '/usr/lib/python3.8/random.py', 'PYMODULE'),
  ('ctypes.util', '/usr/lib/python3.8/ctypes/util.py', 'PYMODULE'),
  ('ctypes._aix', '/usr/lib/python3.8/ctypes/_aix.py', 'PYMODULE'),
  ('ctypes', '/usr/lib/python3.8/ctypes/__init__.py', 'PYMODULE'),
  ('ctypes._endian', '/usr/lib/python3.8/ctypes/_endian.py', 'PYMODULE'),
  ('socket', '/usr/lib/python3.8/socket.py', 'PYMODULE'),
  ('subprocess', '/usr/lib/python3.8/subprocess.py', 'PYMODULE'),
  ('shutil', '/usr/lib/python3.8/shutil.py', 'PYMODULE'),
  ('tarfile', '/usr/lib/python3.8/tarfile.py', 'PYMODULE'),
  ('lzma', '/usr/lib/python3.8/lzma.py', 'PYMODULE'),
  ('bz2', '/usr/lib/python3.8/bz2.py', 'PYMODULE'),
  ('pdb', '/usr/lib/python3.8/pdb.py', 'PYMODULE'),
  ('pydoc', '/usr/lib/python3.8/pydoc.py', 'PYMODULE'),
  ('webbrowser', '/usr/lib/python3.8/webbrowser.py', 'PYMODULE'),
  ('http.server', '/usr/lib/python3.8/http/server.py', 'PYMODULE'),
  ('socketserver', '/usr/lib/python3.8/socketserver.py', 'PYMODULE'),
  ('html', '/usr/lib/python3.8/html/__init__.py', 'PYMODULE'),
  ('html.entities', '/usr/lib/python3.8/html/entities.py', 'PYMODULE'),
  ('pydoc_data.topics', '/usr/lib/python3.8/pydoc_data/topics.py', 'PYMODULE'),
  ('pydoc_data', '/usr/lib/python3.8/pydoc_data/__init__.py', 'PYMODULE'),
  ('tty', '/usr/lib/python3.8/tty.py', 'PYMODULE'),
  ('glob', '/usr/lib/python3.8/glob.py', 'PYMODULE'),
  ('code', '/usr/lib/python3.8/code.py', 'PYMODULE'),
  ('codeop', '/usr/lib/python3.8/codeop.py', 'PYMODULE'),
  ('dis', '/usr/lib/python3.8/dis.py', 'PYMODULE'),
  ('opcode', '/usr/lib/python3.8/opcode.py', 'PYMODULE'),
  ('bdb', '/usr/lib/python3.8/bdb.py', 'PYMODULE'),
  ('cmd', '/usr/lib/python3.8/cmd.py', 'PYMODULE'),
  ('threading', '/usr/lib/python3.8/threading.py', 'PYMODULE'),
  ('_threading_local', '/usr/lib/python3.8/_threading_local.py', 'PYMODULE'),
  ('datetime', '/usr/lib/python3.8/datetime.py', 'PYMODULE'),
  ('_strptime', '/usr/lib/python3.8/_strptime.py', 'PYMODULE'),
  ('pprint', '/usr/lib/python3.8/pprint.py', 'PYMODULE'),
  ('copy', '/usr/lib/python3.8/copy.py', 'PYMODULE'),
  ('pkg_resources._vendor.packaging',
   '/usr/lib/python3/dist-packages/pkg_resources/_vendor/packaging/__init__.py',
   'PYMODULE'),
  ('pkg_resources._vendor.appdirs',
   '/usr/lib/python3/dist-packages/pkg_resources/_vendor/appdirs.py',
   'PYMODULE'),
  ('pkg_resources._vendor',
   '/usr/lib/python3/dist-packages/pkg_resources/_vendor/__init__.py',
   'PYMODULE'),
  ('sysconfig', '/usr/lib/python3.8/sysconfig.py', 'PYMODULE'),
  ('_sysconfigdata__x86_64-linux-gnu',
   '/usr/lib/python3.8/_sysconfigdata__x86_64-linux-gnu.py',
   'PYMODULE'),
  ('_osx_support', '/usr/lib/python3.8/_osx_support.py', 'PYMODULE'),
  ('distutils.log', '/usr/lib/python3.8/distutils/log.py', 'PYMODULE'),
  ('distutils', '/usr/lib/python3.8/distutils/__init__.py', 'PYMODULE'),
  ('distutils.ccompiler',
   '/usr/lib/python3.8/distutils/ccompiler.py',
   'PYMODULE'),
  ('distutils.fancy_getopt',
   '/usr/lib/python3.8/distutils/fancy_getopt.py',
   'PYMODULE'),
  ('distutils.debug', '/usr/lib/python3.8/distutils/debug.py', 'PYMODULE'),
  ('distutils.util', '/usr/lib/python3.8/distutils/util.py', 'PYMODULE'),
  ('distutils.filelist',
   '/usr/lib/python3.8/distutils/filelist.py',
   'PYMODULE'),
  ('py_compile', '/usr/lib/python3.8/py_compile.py', 'PYMODULE'),
  ('distutils.dep_util',
   '/usr/lib/python3.8/distutils/dep_util.py',
   'PYMODULE'),
  ('distutils.dir_util',
   '/usr/lib/python3.8/distutils/dir_util.py',
   'PYMODULE'),
  ('distutils.file_util',
   '/usr/lib/python3.8/distutils/file_util.py',
   'PYMODULE'),
  ('distutils.spawn', '/usr/lib/python3.8/distutils/spawn.py', 'PYMODULE'),
  ('distutils.errors', '/usr/lib/python3.8/distutils/errors.py', 'PYMODULE'),
  ('distutils.sysconfig',
   '/usr/lib/python3.8/distutils/sysconfig.py',
   'PYMODULE'),
  ('distutils.text_file',
   '/usr/lib/python3.8/distutils/text_file.py',
   'PYMODULE'),
  ('pkg_resources.py31compat',
   '/usr/lib/python3/dist-packages/pkg_resources/py31compat.py',
   'PYMODULE'),
  ('importlib.machinery',
   '/usr/lib/python3.8/importlib/machinery.py',
   'PYMODULE'),
  ('pkg_resources.extern',
   '/usr/lib/python3/dist-packages/pkg_resources/extern/__init__.py',
   'PYMODULE'),
  ('imp', '/usr/lib/python3.8/imp.py', 'PYMODULE'),
  ('posixpath', '/usr/lib/python3.8/posixpath.py', 'PYMODULE'),
  ('genericpath', '/usr/lib/python3.8/genericpath.py', 'PYMODULE'),
  ('ntpath', '/usr/lib/python3.8/ntpath.py', 'PYMODULE'),
  ('inspect', '/usr/lib/python3.8/inspect.py', 'PYMODULE'),
  ('ast', '/usr/lib/python3.8/ast.py', 'PYMODULE'),
  ('token', '/usr/lib/python3.8/token.py', 'PYMODULE'),
  ('textwrap', '/usr/lib/python3.8/textwrap.py', 'PYMODULE'),
  ('tempfile', '/usr/lib/python3.8/tempfile.py', 'PYMODULE'),
  ('email.parser', '/usr/lib/python3.8/email/parser.py', 'PYMODULE'),
  ('email.feedparser', '/usr/lib/python3.8/email/feedparser.py', 'PYMODULE'),
  ('plistlib', '/usr/lib/python3.8/plistlib.py', 'PYMODULE'),
  ('platform', '/usr/lib/python3.8/platform.py', 'PYMODULE'),
  ('pkgutil', '/usr/lib/python3.8/pkgutil.py', 'PYMODULE'),
  ('stat', '/usr/lib/python3.8/stat.py', 'PYMODULE'),
  ('zipimport', '/usr/lib/python3.8/zipimport.py', 'PYMODULE'),
  ('zipfile', '/usr/lib/python3.8/zipfile.py', 'PYMODULE'),
  ('__future__', '/usr/lib/python3.8/__future__.py', 'PYMODULE'),
  ('pathlib', '/usr/lib/python3.8/pathlib.py', 'PYMODULE'),
  ('os', '/usr/lib/python3.8/os.py', 'PYMODULE'),
  ('stringprep', '/usr/lib/python3.8/stringprep.py', 'PYMODULE'),
  ('_py_abc', '/usr/lib/python3.8/_py_abc.py', 'PYMODULE'),
  ('tracemalloc', '/usr/lib/python3.8/tracemalloc.py', 'PYMODULE'),
  ('pygame',
   '/home/raul/.local/lib/python3.8/site-packages/pygame/__init__.py',
   'PYMODULE'),
  ('pygame.colordict',
   '/home/raul/.local/lib/python3.8/site-packages/pygame/colordict.py',
   'PYMODULE'),
  ('pygame.macosx',
   '/home/raul/.local/lib/python3.8/site-packages/pygame/macosx.py',
   'PYMODULE'),
  ('pygame.pkgdata',
   '/home/raul/.local/lib/python3.8/site-packages/pygame/pkgdata.py',
   'PYMODULE'),
  ('pygame.fastevent',
   '/home/raul/.local/lib/python3.8/site-packages/pygame/fastevent.py',
   'PYMODULE'),
  ('pygame.sndarray',
   '/home/raul/.local/lib/python3.8/site-packages/pygame/sndarray.py',
   'PYMODULE'),
  ('pygame.surfarray',
   '/home/raul/.local/lib/python3.8/site-packages/pygame/surfarray.py',
   'PYMODULE'),
  ('pygame.sysfont',
   '/home/raul/.local/lib/python3.8/site-packages/pygame/sysfont.py',
   'PYMODULE'),
  ('pygame.ftfont',
   '/home/raul/.local/lib/python3.8/site-packages/pygame/ftfont.py',
   'PYMODULE'),
  ('pygame.threads',
   '/home/raul/.local/lib/python3.8/site-packages/pygame/threads/__init__.py',
   'PYMODULE'),
  ('pygame.sprite',
   '/home/raul/.local/lib/python3.8/site-packages/pygame/sprite.py',
   'PYMODULE'),
  ('pygame.cursors',
   '/home/raul/.local/lib/python3.8/site-packages/pygame/cursors.py',
   'PYMODULE'),
  ('pygame.version',
   '/home/raul/.local/lib/python3.8/site-packages/pygame/version.py',
   'PYMODULE')],
 [('libexpat.so.1', '/lib/x86_64-linux-gnu/libexpat.so.1', 'BINARY'),
  ('libz.so.1', '/lib/x86_64-linux-gnu/libz.so.1', 'BINARY'),
  ('lib-dynload/_ssl',
   '/usr/lib/python3.8/lib-dynload/_ssl.cpython-38-x86_64-linux-gnu.so',
   'EXTENSION'),
  ('lib-dynload/_asyncio',
   '/usr/lib/python3.8/lib-dynload/_asyncio.cpython-38-x86_64-linux-gnu.so',
   'EXTENSION'),
  ('lib-dynload/_contextvars',
   '/usr/lib/python3.8/lib-dynload/_contextvars.cpython-38-x86_64-linux-gnu.so',
   'EXTENSION'),
  ('lib-dynload/_queue',
   '/usr/lib/python3.8/lib-dynload/_queue.cpython-38-x86_64-linux-gnu.so',
   'EXTENSION'),
  ('lib-dynload/mmap',
   '/usr/lib/python3.8/lib-dynload/mmap.cpython-38-x86_64-linux-gnu.so',
   'EXTENSION'),
  ('lib-dynload/_posixshmem',
   '/usr/lib/python3.8/lib-dynload/_posixshmem.cpython-38-x86_64-linux-gnu.so',
   'EXTENSION'),
  ('lib-dynload/resource',
   '/usr/lib/python3.8/lib-dynload/resource.cpython-38-x86_64-linux-gnu.so',
   'EXTENSION'),
  ('lib-dynload/_multiprocessing',
   '/usr/lib/python3.8/lib-dynload/_multiprocessing.cpython-38-x86_64-linux-gnu.so',
   'EXTENSION'),
  ('lib-dynload/termios',
   '/usr/lib/python3.8/lib-dynload/termios.cpython-38-x86_64-linux-gnu.so',
   'EXTENSION'),
  ('lib-dynload/_decimal',
   '/usr/lib/python3.8/lib-dynload/_decimal.cpython-38-x86_64-linux-gnu.so',
   'EXTENSION'),
  ('lib-dynload/_hashlib',
   '/usr/lib/python3.8/lib-dynload/_hashlib.cpython-38-x86_64-linux-gnu.so',
   'EXTENSION'),
  ('lib-dynload/_uuid',
   '/usr/lib/python3.8/lib-dynload/_uuid.cpython-38-x86_64-linux-gnu.so',
   'EXTENSION'),
  ('lib-dynload/_ctypes',
   '/usr/lib/python3.8/lib-dynload/_ctypes.cpython-38-x86_64-linux-gnu.so',
   'EXTENSION'),
  ('lib-dynload/_lzma',
   '/usr/lib/python3.8/lib-dynload/_lzma.cpython-38-x86_64-linux-gnu.so',
   'EXTENSION'),
  ('lib-dynload/_bz2',
   '/usr/lib/python3.8/lib-dynload/_bz2.cpython-38-x86_64-linux-gnu.so',
   'EXTENSION'),
  ('lib-dynload/readline',
   '/usr/lib/python3.8/lib-dynload/readline.cpython-38-x86_64-linux-gnu.so',
   'EXTENSION'),
  ('lib-dynload/_opcode',
   '/usr/lib/python3.8/lib-dynload/_opcode.cpython-38-x86_64-linux-gnu.so',
   'EXTENSION'),
  ('lib-dynload/_multibytecodec',
   '/usr/lib/python3.8/lib-dynload/_multibytecodec.cpython-38-x86_64-linux-gnu.so',
   'EXTENSION'),
  ('lib-dynload/_codecs_jp',
   '/usr/lib/python3.8/lib-dynload/_codecs_jp.cpython-38-x86_64-linux-gnu.so',
   'EXTENSION'),
  ('lib-dynload/_codecs_kr',
   '/usr/lib/python3.8/lib-dynload/_codecs_kr.cpython-38-x86_64-linux-gnu.so',
   'EXTENSION'),
  ('lib-dynload/_codecs_iso2022',
   '/usr/lib/python3.8/lib-dynload/_codecs_iso2022.cpython-38-x86_64-linux-gnu.so',
   'EXTENSION'),
  ('lib-dynload/_codecs_cn',
   '/usr/lib/python3.8/lib-dynload/_codecs_cn.cpython-38-x86_64-linux-gnu.so',
   'EXTENSION'),
  ('lib-dynload/_codecs_tw',
   '/usr/lib/python3.8/lib-dynload/_codecs_tw.cpython-38-x86_64-linux-gnu.so',
   'EXTENSION'),
  ('lib-dynload/_codecs_hk',
   '/usr/lib/python3.8/lib-dynload/_codecs_hk.cpython-38-x86_64-linux-gnu.so',
   'EXTENSION'),
  ('pygame.imageext',
   '/home/raul/.local/lib/python3.8/site-packages/pygame/imageext.cpython-38-x86_64-linux-gnu.so',
   'EXTENSION'),
  ('pygame.scrap',
   '/home/raul/.local/lib/python3.8/site-packages/pygame/scrap.cpython-38-x86_64-linux-gnu.so',
   'EXTENSION'),
  ('pygame.mixer',
   '/home/raul/.local/lib/python3.8/site-packages/pygame/mixer.cpython-38-x86_64-linux-gnu.so',
   'EXTENSION'),
  ('pygame.mixer_music',
   '/home/raul/.local/lib/python3.8/site-packages/pygame/mixer_music.cpython-38-x86_64-linux-gnu.so',
   'EXTENSION'),
  ('pygame.font',
   '/home/raul/.local/lib/python3.8/site-packages/pygame/font.cpython-38-x86_64-linux-gnu.so',
   'EXTENSION'),
  ('pygame._freetype',
   '/home/raul/.local/lib/python3.8/site-packages/pygame/_freetype.cpython-38-x86_64-linux-gnu.so',
   'EXTENSION'),
  ('pygame.transform',
   '/home/raul/.local/lib/python3.8/site-packages/pygame/transform.cpython-38-x86_64-linux-gnu.so',
   'EXTENSION'),
  ('pygame.time',
   '/home/raul/.local/lib/python3.8/site-packages/pygame/time.cpython-38-x86_64-linux-gnu.so',
   'EXTENSION'),
  ('pygame.pixelarray',
   '/home/raul/.local/lib/python3.8/site-packages/pygame/pixelarray.cpython-38-x86_64-linux-gnu.so',
   'EXTENSION'),
  ('pygame.mask',
   '/home/raul/.local/lib/python3.8/site-packages/pygame/mask.cpython-38-x86_64-linux-gnu.so',
   'EXTENSION'),
  ('pygame.surface',
   '/home/raul/.local/lib/python3.8/site-packages/pygame/surface.cpython-38-x86_64-linux-gnu.so',
   'EXTENSION'),
  ('pygame.pixelcopy',
   '/home/raul/.local/lib/python3.8/site-packages/pygame/pixelcopy.cpython-38-x86_64-linux-gnu.so',
   'EXTENSION'),
  ('pygame.mouse',
   '/home/raul/.local/lib/python3.8/site-packages/pygame/mouse.cpython-38-x86_64-linux-gnu.so',
   'EXTENSION'),
  ('pygame.key',
   '/home/raul/.local/lib/python3.8/site-packages/pygame/key.cpython-38-x86_64-linux-gnu.so',
   'EXTENSION'),
  ('pygame.joystick',
   '/home/raul/.local/lib/python3.8/site-packages/pygame/joystick.cpython-38-x86_64-linux-gnu.so',
   'EXTENSION'),
  ('pygame.image',
   '/home/raul/.local/lib/python3.8/site-packages/pygame/image.cpython-38-x86_64-linux-gnu.so',
   'EXTENSION'),
  ('pygame.event',
   '/home/raul/.local/lib/python3.8/site-packages/pygame/event.cpython-38-x86_64-linux-gnu.so',
   'EXTENSION'),
  ('pygame.draw',
   '/home/raul/.local/lib/python3.8/site-packages/pygame/draw.cpython-38-x86_64-linux-gnu.so',
   'EXTENSION'),
  ('pygame.display',
   '/home/raul/.local/lib/python3.8/site-packages/pygame/display.cpython-38-x86_64-linux-gnu.so',
   'EXTENSION'),
  ('pygame.math',
   '/home/raul/.local/lib/python3.8/site-packages/pygame/math.cpython-38-x86_64-linux-gnu.so',
   'EXTENSION'),
  ('pygame.bufferproxy',
   '/home/raul/.local/lib/python3.8/site-packages/pygame/bufferproxy.cpython-38-x86_64-linux-gnu.so',
   'EXTENSION'),
  ('pygame.color',
   '/home/raul/.local/lib/python3.8/site-packages/pygame/color.cpython-38-x86_64-linux-gnu.so',
   'EXTENSION'),
  ('pygame.surflock',
   '/home/raul/.local/lib/python3.8/site-packages/pygame/surflock.cpython-38-x86_64-linux-gnu.so',
   'EXTENSION'),
  ('pygame.rwobject',
   '/home/raul/.local/lib/python3.8/site-packages/pygame/rwobject.cpython-38-x86_64-linux-gnu.so',
   'EXTENSION'),
  ('pygame.rect',
   '/home/raul/.local/lib/python3.8/site-packages/pygame/rect.cpython-38-x86_64-linux-gnu.so',
   'EXTENSION'),
  ('pygame.constants',
   '/home/raul/.local/lib/python3.8/site-packages/pygame/constants.cpython-38-x86_64-linux-gnu.so',
   'EXTENSION'),
  ('pygame.base',
   '/home/raul/.local/lib/python3.8/site-packages/pygame/base.cpython-38-x86_64-linux-gnu.so',
   'EXTENSION'),
  ('libcrypto.so.1.1', '/lib/x86_64-linux-gnu/libcrypto.so.1.1', 'BINARY'),
  ('libssl.so.1.1', '/lib/x86_64-linux-gnu/libssl.so.1.1', 'BINARY'),
  ('libmpdec.so.2', '/lib/x86_64-linux-gnu/libmpdec.so.2', 'BINARY'),
  ('libuuid.so.1', '/lib/x86_64-linux-gnu/libuuid.so.1', 'BINARY'),
  ('libffi.so.7', '/lib/x86_64-linux-gnu/libffi.so.7', 'BINARY'),
  ('liblzma.so.5', '/lib/x86_64-linux-gnu/liblzma.so.5', 'BINARY'),
  ('libbz2.so.1.0', '/lib/x86_64-linux-gnu/libbz2.so.1.0', 'BINARY'),
  ('libtinfo.so.6', '/lib/x86_64-linux-gnu/libtinfo.so.6', 'BINARY'),
  ('libreadline.so.8', '/lib/x86_64-linux-gnu/libreadline.so.8', 'BINARY'),
  ('libtiff-8d84a4e4.so.5.7.0',
   '/home/raul/.local/lib/python3.8/site-packages/pygame/../pygame.libs/libtiff-8d84a4e4.so.5.7.0',
   'BINARY'),
  ('libSDL2_image-2-ca388ea9.0.so.0.2.3',
   '/home/raul/.local/lib/python3.8/site-packages/pygame/../pygame.libs/libSDL2_image-2-ca388ea9.0.so.0.2.3',
   'BINARY'),
  ('libpng16-67f87fff.so.16.37.0',
   '/home/raul/.local/lib/python3.8/site-packages/pygame/../pygame.libs/libpng16-67f87fff.so.16.37.0',
   'BINARY'),
  ('libwebp-c8fa709c.so.7.1.2',
   '/home/raul/.local/lib/python3.8/site-packages/pygame/../pygame.libs/libwebp-c8fa709c.so.7.1.2',
   'BINARY'),
  ('libjpeg-988b02a7.so.62.3.0',
   '/home/raul/.local/lib/python3.8/site-packages/pygame/../pygame.libs/libjpeg-988b02a7.so.62.3.0',
   'BINARY'),
  ('libSDL2-2-302c83d0.0.so.0.16.0',
   '/home/raul/.local/lib/python3.8/site-packages/pygame/../pygame.libs/libSDL2-2-302c83d0.0.so.0.16.0',
   'BINARY'),
  ('libbsd.so.0', '/lib/x86_64-linux-gnu/libbsd.so.0', 'BINARY'),
  ('libX11.so.6', '/lib/x86_64-linux-gnu/libX11.so.6', 'BINARY'),
  ('libXdmcp.so.6', '/lib/x86_64-linux-gnu/libXdmcp.so.6', 'BINARY'),
  ('libXau.so.6', '/lib/x86_64-linux-gnu/libXau.so.6', 'BINARY'),
  ('libstdc++.so.6', '/lib/x86_64-linux-gnu/libstdc++.so.6', 'BINARY'),
  ('libsndfile-72e2e06b.so.1.0.31',
   '/home/raul/.local/lib/python3.8/site-packages/pygame/../pygame.libs/libsndfile-72e2e06b.so.1.0.31',
   'BINARY'),
  ('libFLAC-1889cd2f.so.8.3.0',
   '/home/raul/.local/lib/python3.8/site-packages/pygame/../pygame.libs/libFLAC-1889cd2f.so.8.3.0',
   'BINARY'),
  ('libelf-0-3d9de92a.176.so',
   '/home/raul/.local/lib/python3.8/site-packages/pygame/../pygame.libs/libelf-0-3d9de92a.176.so',
   'BINARY'),
  ('libbz2-a273e504.so.1.0.6',
   '/home/raul/.local/lib/python3.8/site-packages/pygame/../pygame.libs/libbz2-a273e504.so.1.0.6',
   'BINARY'),
  ('libattr-4f2a9577.so.1.1.0',
   '/home/raul/.local/lib/python3.8/site-packages/pygame/../pygame.libs/libattr-4f2a9577.so.1.1.0',
   'BINARY'),
  ('libpcre-9513aab5.so.1.2.0',
   '/home/raul/.local/lib/python3.8/site-packages/pygame/../pygame.libs/libpcre-9513aab5.so.1.2.0',
   'BINARY'),
  ('libgcc_s.so.1', '/lib/x86_64-linux-gnu/libgcc_s.so.1', 'BINARY'),
  ('libgcrypt-18957bae.so.11.8.2',
   '/home/raul/.local/lib/python3.8/site-packages/pygame/../pygame.libs/libgcrypt-18957bae.so.11.8.2',
   'BINARY'),
  ('libvorbis-3a6647c4.so.0.4.9',
   '/home/raul/.local/lib/python3.8/site-packages/pygame/../pygame.libs/libvorbis-3a6647c4.so.0.4.9',
   'BINARY'),
  ('libdbus-1-5d678da9.so.3.14.14',
   '/home/raul/.local/lib/python3.8/site-packages/pygame/../pygame.libs/libdbus-1-5d678da9.so.3.14.14',
   'BINARY'),
  ('libdw-0-780627ce.176.so',
   '/home/raul/.local/lib/python3.8/site-packages/pygame/../pygame.libs/libdw-0-780627ce.176.so',
   'BINARY'),
  ('libselinux-0922c95c.so.1',
   '/home/raul/.local/lib/python3.8/site-packages/pygame/../pygame.libs/libselinux-0922c95c.so.1',
   'BINARY'),
  ('libpulsecommon-14-e93e2477.0.so',
   '/home/raul/.local/lib/python3.8/site-packages/pygame/../pygame.libs/libpulsecommon-14-e93e2477.0.so',
   'BINARY'),
  ('libfluidsynth-1a88b3a9.so.3.0.3',
   '/home/raul/.local/lib/python3.8/site-packages/pygame/../pygame.libs/libfluidsynth-1a88b3a9.so.3.0.3',
   'BINARY'),
  ('libsystemd-c4cac0a4.so.0.6.0',
   '/home/raul/.local/lib/python3.8/site-packages/pygame/../pygame.libs/libsystemd-c4cac0a4.so.0.6.0',
   'BINARY'),
  ('libvorbisfile-b464aa2e.so.3.3.8',
   '/home/raul/.local/lib/python3.8/site-packages/pygame/../pygame.libs/libvorbisfile-b464aa2e.so.3.3.8',
   'BINARY'),
  ('libogg-04548ab3.so.0.8.5',
   '/home/raul/.local/lib/python3.8/site-packages/pygame/../pygame.libs/libogg-04548ab3.so.0.8.5',
   'BINARY'),
  ('libcap-79733b59.so.2.22',
   '/home/raul/.local/lib/python3.8/site-packages/pygame/../pygame.libs/libcap-79733b59.so.2.22',
   'BINARY'),
  ('libSDL2_mixer-2-d009651f.0.so.0.2.2',
   '/home/raul/.local/lib/python3.8/site-packages/pygame/../pygame.libs/libSDL2_mixer-2-d009651f.0.so.0.2.2',
   'BINARY'),
  ('libopus-06b786df.so.0.8.0',
   '/home/raul/.local/lib/python3.8/site-packages/pygame/../pygame.libs/libopus-06b786df.so.0.8.0',
   'BINARY'),
  ('libmikmod-6af46a87.so.3.0.0',
   '/home/raul/.local/lib/python3.8/site-packages/pygame/../pygame.libs/libmikmod-6af46a87.so.3.0.0',
   'BINARY'),
  ('libpulse-simple-9065ac8d.so.0.1.1',
   '/home/raul/.local/lib/python3.8/site-packages/pygame/../pygame.libs/libpulse-simple-9065ac8d.so.0.1.1',
   'BINARY'),
  ('libpcre.so.3', '/lib/x86_64-linux-gnu/libpcre.so.3', 'BINARY'),
  ('libmpg123-e4fca779.so.0.46.3',
   '/home/raul/.local/lib/python3.8/site-packages/pygame/../pygame.libs/libmpg123-e4fca779.so.0.46.3',
   'BINARY'),
  ('liblz4-af1653fb.so.1.8.3',
   '/home/raul/.local/lib/python3.8/site-packages/pygame/../pygame.libs/liblz4-af1653fb.so.1.8.3',
   'BINARY'),
  ('libpulse-76af7338.so.0.23.0',
   '/home/raul/.local/lib/python3.8/site-packages/pygame/../pygame.libs/libpulse-76af7338.so.0.23.0',
   'BINARY'),
  ('libgthread-2.0.so.0',
   '/lib/x86_64-linux-gnu/libgthread-2.0.so.0',
   'BINARY'),
  ('libglib-2.0.so.0', '/lib/x86_64-linux-gnu/libglib-2.0.so.0', 'BINARY'),
  ('libgomp-a34b3233.so.1.0.0',
   '/home/raul/.local/lib/python3.8/site-packages/pygame/../pygame.libs/libgomp-a34b3233.so.1.0.0',
   'BINARY'),
  ('libgpg-error-3f09c3c7.so.0.10.0',
   '/home/raul/.local/lib/python3.8/site-packages/pygame/../pygame.libs/libgpg-error-3f09c3c7.so.0.10.0',
   'BINARY'),
  ('liblzma-07b5b5c8.so.5.2.2',
   '/home/raul/.local/lib/python3.8/site-packages/pygame/../pygame.libs/liblzma-07b5b5c8.so.5.2.2',
   'BINARY'),
  ('libmodplug-c335b2c6.so.1.0.0',
   '/home/raul/.local/lib/python3.8/site-packages/pygame/../pygame.libs/libmodplug-c335b2c6.so.1.0.0',
   'BINARY'),
  ('libvorbisenc-f97181cf.so.2.0.12',
   '/home/raul/.local/lib/python3.8/site-packages/pygame/../pygame.libs/libvorbisenc-f97181cf.so.2.0.12',
   'BINARY'),
  ('libSDL2_ttf-2-cc75fba4.0.so.0.14.1',
   '/home/raul/.local/lib/python3.8/site-packages/pygame/../pygame.libs/libSDL2_ttf-2-cc75fba4.0.so.0.14.1',
   'BINARY'),
  ('libfreetype-9936d4a5.so.6.18.0',
   '/home/raul/.local/lib/python3.8/site-packages/pygame/../pygame.libs/libfreetype-9936d4a5.so.6.18.0',
   'BINARY'),
  ('libpython3.8.so.1.0',
   '/lib/x86_64-linux-gnu/libpython3.8.so.1.0',
   'BINARY')],
 [],
 [],
 [('base_library.zip',
   '/home/raul/Proyectos/testing-pygame/core/build/pong/base_library.zip',
   'DATA'),
  ('pygame/pygame_icon.bmp',
   '/home/raul/.local/lib/python3.8/site-packages/pygame/pygame_icon.bmp',
   'DATA'),
  ('pygame/freesansbold.ttf',
   '/home/raul/.local/lib/python3.8/site-packages/pygame/freesansbold.ttf',
   'DATA')],
 [])
