('/home/raul/Proyectos/testing-pygame/core/dist/pong',
 True,
 False,
 False,
 None,
 None,
 False,
 False,
 None,
 True,
 True,
 False,
 None,
 None,
 None,
 '/home/raul/Proyectos/testing-pygame/core/build/pong/pong.pkg',
 [('PYZ-00.pyz',
   '/home/raul/Proyectos/testing-pygame/core/build/pong/PYZ-00.pyz',
   'PYZ'),
  ('struct',
   '/home/raul/Proyectos/testing-pygame/core/build/pong/localpycos/struct.pyo',
   'PYMODULE'),
  ('pyimod01_os_path',
   '/home/raul/.local/lib/python3.8/site-packages/PyInstaller/loader/pyimod01_os_path.pyc',
   'PYMODULE'),
  ('pyimod02_archive',
   '/home/raul/.local/lib/python3.8/site-packages/PyInstaller/loader/pyimod02_archive.pyc',
   'PYMODULE'),
  ('pyimod03_importers',
   '/home/raul/.local/lib/python3.8/site-packages/PyInstaller/loader/pyimod03_importers.pyc',
   'PYMODULE'),
  ('pyimod04_ctypes',
   '/home/raul/.local/lib/python3.8/site-packages/PyInstaller/loader/pyimod04_ctypes.pyc',
   'PYMODULE'),
  ('pyiboot01_bootstrap',
   '/home/raul/.local/lib/python3.8/site-packages/PyInstaller/loader/pyiboot01_bootstrap.py',
   'PYSOURCE'),
  ('pyi_rth_subprocess',
   '/home/raul/.local/lib/python3.8/site-packages/PyInstaller/hooks/rthooks/pyi_rth_subprocess.py',
   'PYSOURCE'),
  ('pyi_rth_pkgutil',
   '/home/raul/.local/lib/python3.8/site-packages/PyInstaller/hooks/rthooks/pyi_rth_pkgutil.py',
   'PYSOURCE'),
  ('pyi_rth_multiprocessing',
   '/home/raul/.local/lib/python3.8/site-packages/PyInstaller/hooks/rthooks/pyi_rth_multiprocessing.py',
   'PYSOURCE'),
  ('pyi_rth_inspect',
   '/home/raul/.local/lib/python3.8/site-packages/PyInstaller/hooks/rthooks/pyi_rth_inspect.py',
   'PYSOURCE'),
  ('pyi_rth_pkgres',
   '/home/raul/.local/lib/python3.8/site-packages/PyInstaller/hooks/rthooks/pyi_rth_pkgres.py',
   'PYSOURCE'),
  ('pong', '/home/raul/Proyectos/testing-pygame/core/pong.py', 'PYSOURCE'),
  ('libexpat.so.1', '/lib/x86_64-linux-gnu/libexpat.so.1', 'BINARY'),
  ('libz.so.1', '/lib/x86_64-linux-gnu/libz.so.1', 'BINARY'),
  ('lib-dynload/_ssl',
   '/usr/lib/python3.8/lib-dynload/_ssl.cpython-38-x86_64-linux-gnu.so',
   'EXTENSION'),
  ('lib-dynload/_asyncio',
   '/usr/lib/python3.8/lib-dynload/_asyncio.cpython-38-x86_64-linux-gnu.so',
   'EXTENSION'),
  ('lib-dynload/_contextvars',
   '/usr/lib/python3.8/lib-dynload/_contextvars.cpython-38-x86_64-linux-gnu.so',
   'EXTENSION'),
  ('lib-dynload/_queue',
   '/usr/lib/python3.8/lib-dynload/_queue.cpython-38-x86_64-linux-gnu.so',
   'EXTENSION'),
  ('lib-dynload/mmap',
   '/usr/lib/python3.8/lib-dynload/mmap.cpython-38-x86_64-linux-gnu.so',
   'EXTENSION'),
  ('lib-dynload/_posixshmem',
   '/usr/lib/python3.8/lib-dynload/_posixshmem.cpython-38-x86_64-linux-gnu.so',
   'EXTENSION'),
  ('lib-dynload/resource',
   '/usr/lib/python3.8/lib-dynload/resource.cpython-38-x86_64-linux-gnu.so',
   'EXTENSION'),
  ('lib-dynload/_multiprocessing',
   '/usr/lib/python3.8/lib-dynload/_multiprocessing.cpython-38-x86_64-linux-gnu.so',
   'EXTENSION'),
  ('lib-dynload/termios',
   '/usr/lib/python3.8/lib-dynload/termios.cpython-38-x86_64-linux-gnu.so',
   'EXTENSION'),
  ('lib-dynload/_decimal',
   '/usr/lib/python3.8/lib-dynload/_decimal.cpython-38-x86_64-linux-gnu.so',
   'EXTENSION'),
  ('lib-dynload/_hashlib',
   '/usr/lib/python3.8/lib-dynload/_hashlib.cpython-38-x86_64-linux-gnu.so',
   'EXTENSION'),
  ('lib-dynload/_uuid',
   '/usr/lib/python3.8/lib-dynload/_uuid.cpython-38-x86_64-linux-gnu.so',
   'EXTENSION'),
  ('lib-dynload/_ctypes',
   '/usr/lib/python3.8/lib-dynload/_ctypes.cpython-38-x86_64-linux-gnu.so',
   'EXTENSION'),
  ('lib-dynload/_lzma',
   '/usr/lib/python3.8/lib-dynload/_lzma.cpython-38-x86_64-linux-gnu.so',
   'EXTENSION'),
  ('lib-dynload/_bz2',
   '/usr/lib/python3.8/lib-dynload/_bz2.cpython-38-x86_64-linux-gnu.so',
   'EXTENSION'),
  ('lib-dynload/readline',
   '/usr/lib/python3.8/lib-dynload/readline.cpython-38-x86_64-linux-gnu.so',
   'EXTENSION'),
  ('lib-dynload/_opcode',
   '/usr/lib/python3.8/lib-dynload/_opcode.cpython-38-x86_64-linux-gnu.so',
   'EXTENSION'),
  ('lib-dynload/_multibytecodec',
   '/usr/lib/python3.8/lib-dynload/_multibytecodec.cpython-38-x86_64-linux-gnu.so',
   'EXTENSION'),
  ('lib-dynload/_codecs_jp',
   '/usr/lib/python3.8/lib-dynload/_codecs_jp.cpython-38-x86_64-linux-gnu.so',
   'EXTENSION'),
  ('lib-dynload/_codecs_kr',
   '/usr/lib/python3.8/lib-dynload/_codecs_kr.cpython-38-x86_64-linux-gnu.so',
   'EXTENSION'),
  ('lib-dynload/_codecs_iso2022',
   '/usr/lib/python3.8/lib-dynload/_codecs_iso2022.cpython-38-x86_64-linux-gnu.so',
   'EXTENSION'),
  ('lib-dynload/_codecs_cn',
   '/usr/lib/python3.8/lib-dynload/_codecs_cn.cpython-38-x86_64-linux-gnu.so',
   'EXTENSION'),
  ('lib-dynload/_codecs_tw',
   '/usr/lib/python3.8/lib-dynload/_codecs_tw.cpython-38-x86_64-linux-gnu.so',
   'EXTENSION'),
  ('lib-dynload/_codecs_hk',
   '/usr/lib/python3.8/lib-dynload/_codecs_hk.cpython-38-x86_64-linux-gnu.so',
   'EXTENSION'),
  ('pygame.imageext',
   '/home/raul/.local/lib/python3.8/site-packages/pygame/imageext.cpython-38-x86_64-linux-gnu.so',
   'EXTENSION'),
  ('pygame.scrap',
   '/home/raul/.local/lib/python3.8/site-packages/pygame/scrap.cpython-38-x86_64-linux-gnu.so',
   'EXTENSION'),
  ('pygame.mixer',
   '/home/raul/.local/lib/python3.8/site-packages/pygame/mixer.cpython-38-x86_64-linux-gnu.so',
   'EXTENSION'),
  ('pygame.mixer_music',
   '/home/raul/.local/lib/python3.8/site-packages/pygame/mixer_music.cpython-38-x86_64-linux-gnu.so',
   'EXTENSION'),
  ('pygame.font',
   '/home/raul/.local/lib/python3.8/site-packages/pygame/font.cpython-38-x86_64-linux-gnu.so',
   'EXTENSION'),
  ('pygame._freetype',
   '/home/raul/.local/lib/python3.8/site-packages/pygame/_freetype.cpython-38-x86_64-linux-gnu.so',
   'EXTENSION'),
  ('pygame.transform',
   '/home/raul/.local/lib/python3.8/site-packages/pygame/transform.cpython-38-x86_64-linux-gnu.so',
   'EXTENSION'),
  ('pygame.time',
   '/home/raul/.local/lib/python3.8/site-packages/pygame/time.cpython-38-x86_64-linux-gnu.so',
   'EXTENSION'),
  ('pygame.pixelarray',
   '/home/raul/.local/lib/python3.8/site-packages/pygame/pixelarray.cpython-38-x86_64-linux-gnu.so',
   'EXTENSION'),
  ('pygame.mask',
   '/home/raul/.local/lib/python3.8/site-packages/pygame/mask.cpython-38-x86_64-linux-gnu.so',
   'EXTENSION'),
  ('pygame.surface',
   '/home/raul/.local/lib/python3.8/site-packages/pygame/surface.cpython-38-x86_64-linux-gnu.so',
   'EXTENSION'),
  ('pygame.pixelcopy',
   '/home/raul/.local/lib/python3.8/site-packages/pygame/pixelcopy.cpython-38-x86_64-linux-gnu.so',
   'EXTENSION'),
  ('pygame.mouse',
   '/home/raul/.local/lib/python3.8/site-packages/pygame/mouse.cpython-38-x86_64-linux-gnu.so',
   'EXTENSION'),
  ('pygame.key',
   '/home/raul/.local/lib/python3.8/site-packages/pygame/key.cpython-38-x86_64-linux-gnu.so',
   'EXTENSION'),
  ('pygame.joystick',
   '/home/raul/.local/lib/python3.8/site-packages/pygame/joystick.cpython-38-x86_64-linux-gnu.so',
   'EXTENSION'),
  ('pygame.image',
   '/home/raul/.local/lib/python3.8/site-packages/pygame/image.cpython-38-x86_64-linux-gnu.so',
   'EXTENSION'),
  ('pygame.event',
   '/home/raul/.local/lib/python3.8/site-packages/pygame/event.cpython-38-x86_64-linux-gnu.so',
   'EXTENSION'),
  ('pygame.draw',
   '/home/raul/.local/lib/python3.8/site-packages/pygame/draw.cpython-38-x86_64-linux-gnu.so',
   'EXTENSION'),
  ('pygame.display',
   '/home/raul/.local/lib/python3.8/site-packages/pygame/display.cpython-38-x86_64-linux-gnu.so',
   'EXTENSION'),
  ('pygame.math',
   '/home/raul/.local/lib/python3.8/site-packages/pygame/math.cpython-38-x86_64-linux-gnu.so',
   'EXTENSION'),
  ('pygame.bufferproxy',
   '/home/raul/.local/lib/python3.8/site-packages/pygame/bufferproxy.cpython-38-x86_64-linux-gnu.so',
   'EXTENSION'),
  ('pygame.color',
   '/home/raul/.local/lib/python3.8/site-packages/pygame/color.cpython-38-x86_64-linux-gnu.so',
   'EXTENSION'),
  ('pygame.surflock',
   '/home/raul/.local/lib/python3.8/site-packages/pygame/surflock.cpython-38-x86_64-linux-gnu.so',
   'EXTENSION'),
  ('pygame.rwobject',
   '/home/raul/.local/lib/python3.8/site-packages/pygame/rwobject.cpython-38-x86_64-linux-gnu.so',
   'EXTENSION'),
  ('pygame.rect',
   '/home/raul/.local/lib/python3.8/site-packages/pygame/rect.cpython-38-x86_64-linux-gnu.so',
   'EXTENSION'),
  ('pygame.constants',
   '/home/raul/.local/lib/python3.8/site-packages/pygame/constants.cpython-38-x86_64-linux-gnu.so',
   'EXTENSION'),
  ('pygame.base',
   '/home/raul/.local/lib/python3.8/site-packages/pygame/base.cpython-38-x86_64-linux-gnu.so',
   'EXTENSION'),
  ('libcrypto.so.1.1', '/lib/x86_64-linux-gnu/libcrypto.so.1.1', 'BINARY'),
  ('libssl.so.1.1', '/lib/x86_64-linux-gnu/libssl.so.1.1', 'BINARY'),
  ('libmpdec.so.2', '/lib/x86_64-linux-gnu/libmpdec.so.2', 'BINARY'),
  ('libuuid.so.1', '/lib/x86_64-linux-gnu/libuuid.so.1', 'BINARY'),
  ('libffi.so.7', '/lib/x86_64-linux-gnu/libffi.so.7', 'BINARY'),
  ('liblzma.so.5', '/lib/x86_64-linux-gnu/liblzma.so.5', 'BINARY'),
  ('libbz2.so.1.0', '/lib/x86_64-linux-gnu/libbz2.so.1.0', 'BINARY'),
  ('libtinfo.so.6', '/lib/x86_64-linux-gnu/libtinfo.so.6', 'BINARY'),
  ('libreadline.so.8', '/lib/x86_64-linux-gnu/libreadline.so.8', 'BINARY'),
  ('libtiff-8d84a4e4.so.5.7.0',
   '/home/raul/.local/lib/python3.8/site-packages/pygame/../pygame.libs/libtiff-8d84a4e4.so.5.7.0',
   'BINARY'),
  ('libSDL2_image-2-ca388ea9.0.so.0.2.3',
   '/home/raul/.local/lib/python3.8/site-packages/pygame/../pygame.libs/libSDL2_image-2-ca388ea9.0.so.0.2.3',
   'BINARY'),
  ('libpng16-67f87fff.so.16.37.0',
   '/home/raul/.local/lib/python3.8/site-packages/pygame/../pygame.libs/libpng16-67f87fff.so.16.37.0',
   'BINARY'),
  ('libwebp-c8fa709c.so.7.1.2',
   '/home/raul/.local/lib/python3.8/site-packages/pygame/../pygame.libs/libwebp-c8fa709c.so.7.1.2',
   'BINARY'),
  ('libjpeg-988b02a7.so.62.3.0',
   '/home/raul/.local/lib/python3.8/site-packages/pygame/../pygame.libs/libjpeg-988b02a7.so.62.3.0',
   'BINARY'),
  ('libSDL2-2-302c83d0.0.so.0.16.0',
   '/home/raul/.local/lib/python3.8/site-packages/pygame/../pygame.libs/libSDL2-2-302c83d0.0.so.0.16.0',
   'BINARY'),
  ('libbsd.so.0', '/lib/x86_64-linux-gnu/libbsd.so.0', 'BINARY'),
  ('libX11.so.6', '/lib/x86_64-linux-gnu/libX11.so.6', 'BINARY'),
  ('libXdmcp.so.6', '/lib/x86_64-linux-gnu/libXdmcp.so.6', 'BINARY'),
  ('libXau.so.6', '/lib/x86_64-linux-gnu/libXau.so.6', 'BINARY'),
  ('libstdc++.so.6', '/lib/x86_64-linux-gnu/libstdc++.so.6', 'BINARY'),
  ('libsndfile-72e2e06b.so.1.0.31',
   '/home/raul/.local/lib/python3.8/site-packages/pygame/../pygame.libs/libsndfile-72e2e06b.so.1.0.31',
   'BINARY'),
  ('libFLAC-1889cd2f.so.8.3.0',
   '/home/raul/.local/lib/python3.8/site-packages/pygame/../pygame.libs/libFLAC-1889cd2f.so.8.3.0',
   'BINARY'),
  ('libelf-0-3d9de92a.176.so',
   '/home/raul/.local/lib/python3.8/site-packages/pygame/../pygame.libs/libelf-0-3d9de92a.176.so',
   'BINARY'),
  ('libbz2-a273e504.so.1.0.6',
   '/home/raul/.local/lib/python3.8/site-packages/pygame/../pygame.libs/libbz2-a273e504.so.1.0.6',
   'BINARY'),
  ('libattr-4f2a9577.so.1.1.0',
   '/home/raul/.local/lib/python3.8/site-packages/pygame/../pygame.libs/libattr-4f2a9577.so.1.1.0',
   'BINARY'),
  ('libpcre-9513aab5.so.1.2.0',
   '/home/raul/.local/lib/python3.8/site-packages/pygame/../pygame.libs/libpcre-9513aab5.so.1.2.0',
   'BINARY'),
  ('libgcc_s.so.1', '/lib/x86_64-linux-gnu/libgcc_s.so.1', 'BINARY'),
  ('libgcrypt-18957bae.so.11.8.2',
   '/home/raul/.local/lib/python3.8/site-packages/pygame/../pygame.libs/libgcrypt-18957bae.so.11.8.2',
   'BINARY'),
  ('libvorbis-3a6647c4.so.0.4.9',
   '/home/raul/.local/lib/python3.8/site-packages/pygame/../pygame.libs/libvorbis-3a6647c4.so.0.4.9',
   'BINARY'),
  ('libdbus-1-5d678da9.so.3.14.14',
   '/home/raul/.local/lib/python3.8/site-packages/pygame/../pygame.libs/libdbus-1-5d678da9.so.3.14.14',
   'BINARY'),
  ('libdw-0-780627ce.176.so',
   '/home/raul/.local/lib/python3.8/site-packages/pygame/../pygame.libs/libdw-0-780627ce.176.so',
   'BINARY'),
  ('libselinux-0922c95c.so.1',
   '/home/raul/.local/lib/python3.8/site-packages/pygame/../pygame.libs/libselinux-0922c95c.so.1',
   'BINARY'),
  ('libpulsecommon-14-e93e2477.0.so',
   '/home/raul/.local/lib/python3.8/site-packages/pygame/../pygame.libs/libpulsecommon-14-e93e2477.0.so',
   'BINARY'),
  ('libfluidsynth-1a88b3a9.so.3.0.3',
   '/home/raul/.local/lib/python3.8/site-packages/pygame/../pygame.libs/libfluidsynth-1a88b3a9.so.3.0.3',
   'BINARY'),
  ('libsystemd-c4cac0a4.so.0.6.0',
   '/home/raul/.local/lib/python3.8/site-packages/pygame/../pygame.libs/libsystemd-c4cac0a4.so.0.6.0',
   'BINARY'),
  ('libvorbisfile-b464aa2e.so.3.3.8',
   '/home/raul/.local/lib/python3.8/site-packages/pygame/../pygame.libs/libvorbisfile-b464aa2e.so.3.3.8',
   'BINARY'),
  ('libogg-04548ab3.so.0.8.5',
   '/home/raul/.local/lib/python3.8/site-packages/pygame/../pygame.libs/libogg-04548ab3.so.0.8.5',
   'BINARY'),
  ('libcap-79733b59.so.2.22',
   '/home/raul/.local/lib/python3.8/site-packages/pygame/../pygame.libs/libcap-79733b59.so.2.22',
   'BINARY'),
  ('libSDL2_mixer-2-d009651f.0.so.0.2.2',
   '/home/raul/.local/lib/python3.8/site-packages/pygame/../pygame.libs/libSDL2_mixer-2-d009651f.0.so.0.2.2',
   'BINARY'),
  ('libopus-06b786df.so.0.8.0',
   '/home/raul/.local/lib/python3.8/site-packages/pygame/../pygame.libs/libopus-06b786df.so.0.8.0',
   'BINARY'),
  ('libmikmod-6af46a87.so.3.0.0',
   '/home/raul/.local/lib/python3.8/site-packages/pygame/../pygame.libs/libmikmod-6af46a87.so.3.0.0',
   'BINARY'),
  ('libpulse-simple-9065ac8d.so.0.1.1',
   '/home/raul/.local/lib/python3.8/site-packages/pygame/../pygame.libs/libpulse-simple-9065ac8d.so.0.1.1',
   'BINARY'),
  ('libpcre.so.3', '/lib/x86_64-linux-gnu/libpcre.so.3', 'BINARY'),
  ('libmpg123-e4fca779.so.0.46.3',
   '/home/raul/.local/lib/python3.8/site-packages/pygame/../pygame.libs/libmpg123-e4fca779.so.0.46.3',
   'BINARY'),
  ('liblz4-af1653fb.so.1.8.3',
   '/home/raul/.local/lib/python3.8/site-packages/pygame/../pygame.libs/liblz4-af1653fb.so.1.8.3',
   'BINARY'),
  ('libpulse-76af7338.so.0.23.0',
   '/home/raul/.local/lib/python3.8/site-packages/pygame/../pygame.libs/libpulse-76af7338.so.0.23.0',
   'BINARY'),
  ('libgthread-2.0.so.0',
   '/lib/x86_64-linux-gnu/libgthread-2.0.so.0',
   'BINARY'),
  ('libglib-2.0.so.0', '/lib/x86_64-linux-gnu/libglib-2.0.so.0', 'BINARY'),
  ('libgomp-a34b3233.so.1.0.0',
   '/home/raul/.local/lib/python3.8/site-packages/pygame/../pygame.libs/libgomp-a34b3233.so.1.0.0',
   'BINARY'),
  ('libgpg-error-3f09c3c7.so.0.10.0',
   '/home/raul/.local/lib/python3.8/site-packages/pygame/../pygame.libs/libgpg-error-3f09c3c7.so.0.10.0',
   'BINARY'),
  ('liblzma-07b5b5c8.so.5.2.2',
   '/home/raul/.local/lib/python3.8/site-packages/pygame/../pygame.libs/liblzma-07b5b5c8.so.5.2.2',
   'BINARY'),
  ('libmodplug-c335b2c6.so.1.0.0',
   '/home/raul/.local/lib/python3.8/site-packages/pygame/../pygame.libs/libmodplug-c335b2c6.so.1.0.0',
   'BINARY'),
  ('libvorbisenc-f97181cf.so.2.0.12',
   '/home/raul/.local/lib/python3.8/site-packages/pygame/../pygame.libs/libvorbisenc-f97181cf.so.2.0.12',
   'BINARY'),
  ('libSDL2_ttf-2-cc75fba4.0.so.0.14.1',
   '/home/raul/.local/lib/python3.8/site-packages/pygame/../pygame.libs/libSDL2_ttf-2-cc75fba4.0.so.0.14.1',
   'BINARY'),
  ('libfreetype-9936d4a5.so.6.18.0',
   '/home/raul/.local/lib/python3.8/site-packages/pygame/../pygame.libs/libfreetype-9936d4a5.so.6.18.0',
   'BINARY'),
  ('libpython3.8.so.1.0',
   '/lib/x86_64-linux-gnu/libpython3.8.so.1.0',
   'BINARY'),
  ('base_library.zip',
   '/home/raul/Proyectos/testing-pygame/core/build/pong/base_library.zip',
   'DATA'),
  ('pygame/pygame_icon.bmp',
   '/home/raul/.local/lib/python3.8/site-packages/pygame/pygame_icon.bmp',
   'DATA'),
  ('pygame/freesansbold.ttf',
   '/home/raul/.local/lib/python3.8/site-packages/pygame/freesansbold.ttf',
   'DATA')],
 [],
 False,
 False,
 1652423121,
 [('run',
   '/home/raul/.local/lib/python3.8/site-packages/PyInstaller/bootloader/Linux-64bit-intel/run',
   'EXECUTABLE')])
